([('main.exe',
   'C:\\Documents and Settings\\Administrateur\\Bureau\\Pylogin\\build\\main\\main.exe',
   'EXECUTABLE'),
  ('main.exe.manifest',
   'C:\\Documents and Settings\\Administrateur\\Bureau\\Pylogin\\build\\main\\main.exe.manifest',
   'BINARY'),
  (u'Microsoft.VC90.CRT.manifest',
   u'C:\\WINDOWS\\WinSxS\\Manifests\\x86_Microsoft.VC90.CRT_1fc8b3b9a1e18e3b_9.0.30729.1_x-ww_6f74963e.manifest',
   'BINARY'),
  (u'msvcr90.dll',
   u'C:\\WINDOWS\\WinSxS\\x86_Microsoft.VC90.CRT_1fc8b3b9a1e18e3b_9.0.30729.1_x-ww_6f74963e\\msvcr90.dll',
   'BINARY'),
  (u'msvcp90.dll',
   u'C:\\WINDOWS\\WinSxS\\x86_Microsoft.VC90.CRT_1fc8b3b9a1e18e3b_9.0.30729.1_x-ww_6f74963e\\msvcp90.dll',
   'BINARY'),
  (u'msvcm90.dll',
   u'C:\\WINDOWS\\WinSxS\\x86_Microsoft.VC90.CRT_1fc8b3b9a1e18e3b_9.0.30729.1_x-ww_6f74963e\\msvcm90.dll',
   'BINARY'),
  ('python27.dll', 'C:\\WINDOWS\\system32\\python27.dll', 'BINARY'),
  ('unicodedata', 'c:\\python27\\DLLs\\unicodedata.pyd', 'EXTENSION'),
  ('_hashlib', 'c:\\python27\\DLLs\\_hashlib.pyd', 'EXTENSION'),
  ('select', 'c:\\python27\\DLLs\\select.pyd', 'EXTENSION'),
  ('bz2', 'c:\\python27\\DLLs\\bz2.pyd', 'EXTENSION'),
  ('_ctypes', 'c:\\python27\\DLLs\\_ctypes.pyd', 'EXTENSION')],)
