('C:\\Documents and Settings\\Administrateur\\Bureau\\Pylogin\\build\\main\\PKG-00.pkg',
 {'BINARY': 1,
  'DATA': 1,
  'EXECUTABLE': 1,
  'EXTENSION': 1,
  'PYMODULE': 1,
  'PYSOURCE': 1,
  'PYZ': 0},
 [('PYZ-00.pyz',
   'C:\\Documents and Settings\\Administrateur\\Bureau\\Pylogin\\build\\main\\PYZ-00.pyz',
   'PYZ'),
  ('struct', 'c:\\python27\\lib\\struct.pyc', 'PYMODULE'),
  ('pyimod01_os_path',
   'c:\\python27\\lib\\site-packages\\PyInstaller\\loader\\pyimod01_os_path.pyc',
   'PYMODULE'),
  ('pyimod02_archive',
   'c:\\python27\\lib\\site-packages\\PyInstaller\\loader\\pyimod02_archive.pyc',
   'PYMODULE'),
  ('pyimod03_importers',
   'c:\\python27\\lib\\site-packages\\PyInstaller\\loader\\pyimod03_importers.pyc',
   'PYMODULE'),
  ('pyiboot01_bootstrap',
   'c:\\python27\\lib\\site-packages\\PyInstaller\\loader\\pyiboot01_bootstrap.py',
   'PYSOURCE'),
  ('main',
   'C:\\Documents and Settings\\Administrateur\\Bureau\\Pylogin\\main.py',
   'PYSOURCE'),
  ('main.exe.manifest',
   'C:\\Documents and Settings\\Administrateur\\Bureau\\Pylogin\\build\\main\\main.exe.manifest',
   'BINARY')],
 True,
 False,
 False,
 [])
